<?xml version="1.0" encoding="utf-8"?>
<!-- Generator: Adobe Illustrator 19.0.0, SVG Export Plug-In . SVG Version: 6.00 Build 0)  -->
<svg version="1.1" xmlns="http://www.w3.org/2000/svg" xmlns:xlink="http://www.w3.org/1999/xlink" x="0px" y="0px"
	 viewBox="0 0 325.1 238.7" style="enable-background:new 0 0 325.1 238.7;" xml:space="preserve">
<style type="text/css">
	.st0{fill:#F7941E;}
	.st1{fill:none;stroke:#F7941E;stroke-width:0;stroke-linecap:round;stroke-linejoin:round;}
</style>
<g id="Layer_2">
	<g id="XMLID_105_">
		<path id="XMLID_106_" class="st0" d="M323.1,85.7c0.5,1.1,1,2.3,1.3,3.4c0.2,0.3,0.4,0.6,0.6,0.9
			C324.5,88.6,323.9,87.1,323.1,85.7z"/>
		<path id="XMLID_109_" class="st0" d="M324.4,89.1c-6.5-10.3-15.1-19.3-25.8-26.9c-10-7.1-20.4-12.2-31.3-15.1
			c-4.5-1.2-9-2.1-13.7-2.6c-0.2-0.1-0.3-0.2-0.5-0.3c-0.3,0.1-0.6,0.1-0.9,0.2c-6-0.6-12-0.5-18.3,0.1c-0.1,0-0.2,0-0.3,0
			c0,0-0.1,0-0.1,0c-0.1,0-0.1,0.1-0.2,0.1c-2.2,0.2-4.4,0.5-6.7,0.9c-3.3,0.5-6.1,1.4-8.6,2.5c-7.4,0.4-14.9-1.1-22.4-4.5
			c-12.6-5.6-21.4-14.8-26.3-27.6c-0.9-2.4-2-4.5-3.1-6.4c-5.9-9.3-15-11.7-27.2-7.2c-14.6,5.8-19.1,15.9-13.5,30.4
			c8.6,22.2,23,38.8,43.3,49.9c-12.7,16-19.5,34.4-20.2,55.2c-0.2,1.4-0.3,2.9-0.3,4.5c-0.3,13.9-5.6,25.7-15.7,35.4
			c-10.1,9.7-22,14.4-35.9,14.2c-13.9-0.3-25.7-5.6-35.4-15.7c-9.7-10.1-14.4-22-14.2-35.9c0.3-14.2,5.5-26,15.4-35.6
			C72.4,95,84.5,90.3,98.5,90.6c15.7,0.5,23.7-7.2,24-23.1c0.1-15.4-7.6-23.4-23.1-24C72.4,43,49.1,52.1,29.7,70.8
			C10.4,89.4,0.5,112.2,0,139.2c-0.5,26.9,8.6,50.1,27.3,69.5c18.8,19.5,41.6,29.5,68.4,29.9c26.9,0.6,50-8.5,69.4-27.2
			c2.3-2.2,4.5-4.5,6.5-6.9c1.9,2.2,4,4.4,6.1,6.5c6.8,6.6,14,11.9,21.7,16.1c9.2,5.2,19.2,8.9,30.1,10.9
			c15.3,2.6,24.5-3.7,27.5-18.9c2.6-15.5-3.7-24.6-18.9-27.2c-4.4-0.9-8.7-2.4-12.8-4.4l0.1-0.2c-2.2-0.9-4.3-2.1-6.4-3.4
			c-1.5-1-2.9-2-4.4-3.2c-1.3-1.2-2.5-2.4-3.7-3.6l-0.3,0.2c-0.1-0.1-0.2-0.2-0.2-0.2c-9.8-9.5-14.8-21.1-15-34.8
			c-0.3-13.5,4.3-25.3,14-35.2c9.7-10,21.3-15,34.9-15.1c6.5-0.1,12.5,0.9,18.1,3.1c1.1,0.4,2.2,0.9,3.3,1.4
			c6.9,3.3,12.7,7.7,17.4,13.2c3.1,4,6.9,6.5,11.5,7.7c1.3,0.4,2.7,0.6,4.2,0.7c0.3,0,0.5,0,0.8,0c5.1,0,10.5-2.3,16-6.9
			C323.7,104.3,326.6,96.9,324.4,89.1z M188.9,91c-0.9-0.3-1.7-0.5-2.6-0.8C187.2,90.4,188.1,90.7,188.9,91z M185.9,90
			c-1-0.3-1.9-0.7-2.9-1C184,89.4,185,89.7,185.9,90z M182.4,88.8c-0.8-0.3-1.5-0.6-2.3-0.9C180.9,88.2,181.7,88.5,182.4,88.8z
			 M176.5,86.3c0.9,0.4,1.9,0.8,2.8,1.2C178.4,87.2,177.4,86.8,176.5,86.3c-1.5-0.7-2.9-1.3-4.3-2C173.6,85,175,85.7,176.5,86.3z
			 M254.3,45c0.5,0.3,0.9,0.6,1.3,1C255.2,45.6,254.8,45.2,254.3,45z M255.9,46c0.4,0.3,0.8,0.7,1.2,1
			C256.6,46.7,256.3,46.4,255.9,46z M257.3,47.3c0.3,0.3,0.7,0.7,1,1.1C258,48,257.7,47.7,257.3,47.3z M258.7,48.8
			c0.3,0.3,0.6,0.7,0.9,1.1C259.3,49.5,259,49.2,258.7,48.8z M260,50.5c0.2,0.4,0.5,0.7,0.7,1.1C260.5,51.3,260.3,50.9,260,50.5z
			 M261.3,52.5c0.2,0.3,0.4,0.7,0.6,1C261.7,53.2,261.5,52.8,261.3,52.5z M262.5,54.8c0.1,0.3,0.3,0.6,0.4,0.9
			C262.8,55.3,262.6,55.1,262.5,54.8z"/>
		<path id="XMLID_120_" class="st1" d="M183,89c1,0.4,1.9,0.7,2.9,1"/>
		<path id="XMLID_121_" class="st1" d="M176.5,86.3c0.9,0.4,1.9,0.8,2.8,1.2"/>
		<path id="XMLID_122_" class="st1" d="M172.2,84.3c1.4,0.7,2.8,1.4,4.3,2"/>
		<path id="XMLID_123_" class="st1" d="M180.1,87.9c0.8,0.3,1.5,0.6,2.3,0.9"/>
		<path id="XMLID_124_" class="st1" d="M186.3,90.2c0.9,0.3,1.7,0.6,2.6,0.8"/>
		<path id="XMLID_125_" class="st1" d="M254.3,45c0.5,0.3,0.9,0.6,1.3,1"/>
		<path id="XMLID_126_" class="st1" d="M258.7,48.8c0.3,0.3,0.6,0.7,0.9,1.1"/>
		<path id="XMLID_127_" class="st1" d="M261.3,52.5c0.2,0.3,0.4,0.7,0.6,1"/>
		<path id="XMLID_128_" class="st1" d="M255.9,46c0.4,0.3,0.8,0.7,1.2,1"/>
		<path id="XMLID_129_" class="st1" d="M260,50.5c0.2,0.4,0.5,0.7,0.7,1.1"/>
		<path id="XMLID_130_" class="st1" d="M257.3,47.3c0.3,0.3,0.7,0.7,1,1.1"/>
		<path id="XMLID_131_" class="st1" d="M262.5,54.8c0.1,0.3,0.3,0.6,0.4,0.9"/>
	</g>
</g>
<g id="Layer_4">
</g>
</svg>
